…
``` r
masses |> distinct(Abbr)
```

    ## # A tibble: 155 × 1
    ##    Abbr 
    ##    <chr>
    ##  1 aRU  
    ##  2 aRS  
    ##  3 aRA  
    ##  4 aRP  
    ##  5 cwRS 
    ##  6 cwRA 
    ##  7 cwRP 
    ##  8 w1RU 
    ##  9 w1RS 
    ## 10 w1RA 
    ## # ℹ 145 more rows
…
