…
``` r
masses |> distinct(Abbr)
```

    ## # A tibble: 35 × 1
    ##    Abbr 
    ##    <chr>
    ##  1 aRU  
    ##  2 w1RU 
    ##  3 w0RU 
    ##  4 w2RU 
    ##  5 sd1RU
    ##  6 sd0RU
    ##  7 sd2RU
    ##  8 s1RU 
    ##  9 s2RU 
    ## 10 s3RU 
    ## # ℹ 25 more rows
…
